twoToOne/simulation/qsim/twoToOne.msim.vcd
$comment
	File created using the following command:
		vcd file twoToOne.msim.vcd -direction
$end
$date
	Tue Apr 05 19:39:54 2022
$end
$version
	ModelSim Version 2020.1
$end
$timescale
	1ps
$end

$scope module twoToOne_vlg_vec_tst $end
$var reg 4 ! A [3:0] $end
$var reg 4 " B [3:0] $end
$var reg 1 # S $end
$var wire 1 $ Y [3] $end
$var wire 1 % Y [2] $end
$var wire 1 & Y [1] $end
$var wire 1 ' Y [0] $end

$scope module i1 $end
$var wire 1 ( gnd $end
$var wire 1 ) vcc $end
$var wire 1 * unknown $end
$var tri1 1 + devclrn $end
$var tri1 1 , devpor $end
$var tri1 1 - devoe $end
$var wire 1 . ~QUARTUS_CREATED_GND~I_combout $end
$var wire 1 / ~QUARTUS_CREATED_UNVM~~busy $end
$var wire 1 0 ~QUARTUS_CREATED_ADC1~~eoc $end
$var wire 1 1 ~QUARTUS_CREATED_ADC2~~eoc $end
$var wire 1 2 Y[0]~output_o $end
$var wire 1 3 Y[1]~output_o $end
$var wire 1 4 Y[2]~output_o $end
$var wire 1 5 Y[3]~output_o $end
$var wire 1 6 A[0]~input_o $end
$var wire 1 7 B[0]~input_o $end
$var wire 1 8 S~input_o $end
$var wire 1 9 Y~0_combout $end
$var wire 1 : B[1]~input_o $end
$var wire 1 ; A[1]~input_o $end
$var wire 1 < Y~1_combout $end
$var wire 1 = A[2]~input_o $end
$var wire 1 > B[2]~input_o $end
$var wire 1 ? Y~2_combout $end
$var wire 1 @ B[3]~input_o $end
$var wire 1 A A[3]~input_o $end
$var wire 1 B Y~3_combout $end
$upscope $end
$upscope $end
$enddefinitions $end
#0
$dumpvars
b0 !
b0 "
0#
0'
0&
0%
0$
0(
1)
x*
1+
1,
1-
0.
z/
z0
z1
02
03
04
05
06
07
08
09
0:
0;
0<
0=
0>
0?
0@
0A
0B
$end
#20000
b1 !
16
19
12
1'
#40000
b11 !
b100 "
b10 !
1;
06
1>
1<
09
02
13
1&
0'
#60000
b11 !
16
19
12
1'
#80000
b1100 "
1#
b1 !
b1000 "
b0 !
1@
0>
0;
06
18
1B
0<
09
02
03
15
1$
0&
0'
#100000
b1 !
16
#120000
b11 !
b1100 "
b10 !
1;
06
1>
1?
14
1%
#140000
b11 !
16
#160000
b100 "
0#
b1 !
b0 "
b0 !
0@
0>
0;
06
08
0B
0?
04
05
0$
0%
#180000
b1 !
16
19
12
1'
#200000
b11 !
b100 "
b10 !
1;
06
1>
1<
09
02
13
1&
0'
#220000
b11 !
16
19
12
1'
#240000
b1100 "
1#
b1 !
b1000 "
b0 !
1@
0>
0;
06
18
1B
0<
09
02
03
15
1$
0&
0'
#260000
b1 !
16
#280000
b11 !
b1100 "
b10 !
1;
06
1>
1?
14
1%
#300000
b11 !
16
#320000
b100 "
0#
b1 !
b0 "
b0 !
0@
0>
0;
06
08
0B
0?
04
05
0$
0%
#340000
b1 !
16
19
12
1'
#360000
b11 !
b100 "
b10 !
1;
06
1>
1<
09
02
13
1&
0'
#380000
b11 !
16
19
12
1'
#400000
b1100 "
1#
b1 !
b1000 "
b0 !
1@
0>
0;
06
18
1B
0<
09
02
03
15
1$
0&
0'
#420000
b1 !
16
#440000
b11 !
b1100 "
b10 !
1;
06
1>
1?
14
1%
#460000
b11 !
16
#480000
b100 "
0#
b1 !
b0 "
b0 !
0@
0>
0;
06
08
0B
0?
04
05
0$
0%
#500000
b1 !
16
19
12
1'
#520000
b11 !
b100 "
b10 !
1;
06
1>
1<
09
02
13
1&
0'
#540000
b11 !
16
19
12
1'
#560000
b1100 "
1#
b1 !
b1000 "
b0 !
1@
0>
0;
06
18
1B
0<
09
02
03
15
1$
0&
0'
#580000
b1 !
16
#600000
b11 !
b1100 "
b10 !
1;
06
1>
1?
14
1%
#620000
b11 !
16
#640000
b100 "
0#
b1 !
b0 "
b0 !
0@
0>
0;
06
08
0B
0?
04
05
0$
0%
#660000
b1 !
16
19
12
1'
#680000
b11 !
b100 "
b10 !
1;
06
1>
1<
09
02
13
1&
0'
#700000
b11 !
16
19
12
1'
#720000
b1100 "
1#
b1 !
b1000 "
b0 !
1@
0>
0;
06
18
1B
0<
09
02
03
15
1$
0&
0'
#740000
b1 !
16
#760000
b11 !
b1100 "
b10 !
1;
06
1>
1?
14
1%
#780000
b11 !
16
#800000
b100 "
0#
b1 !
b0 "
b0 !
0@
0>
0;
06
08
0B
0?
04
05
0$
0%
#820000
b1 !
16
19
12
1'
#840000
b11 !
b100 "
b10 !
1;
06
1>
1<
09
02
13
1&
0'
#860000
b11 !
16
19
12
1'
#880000
b1100 "
1#
b1 !
b1000 "
b0 !
1@
0>
0;
06
18
1B
0<
09
02
03
15
1$
0&
0'
#900000
b1 !
16
#920000
b11 !
b1100 "
b10 !
1;
06
1>
1?
14
1%
#940000
b11 !
16
#960000
b100 "
0#
b1 !
b0 "
b0 !
0@
0>
0;
06
08
0B
0?
04
05
0$
0%
#980000
b1 !
16
19
12
1'
