RAMtesterCode/OnOffToggle/simulation/qsim/OnOffToggle.msim.vcd
$comment
	File created using the following command:
		vcd file OnOffToggle.msim.vcd -direction
$end
$date
	Tue Nov 02 23:19:21 2021
$end
$version
	ModelSim Version 2020.1
$end
$timescale
	1ps
$end

$scope module OnOffToggle_vlg_vec_tst $end
$var reg 1 ! IN $end
$var reg 1 " OnOff $end
$var wire 1 # OUT $end

$scope module i1 $end
$var wire 1 $ gnd $end
$var wire 1 % vcc $end
$var wire 1 & unknown $end
$var tri1 1 ' devclrn $end
$var tri1 1 ( devpor $end
$var tri1 1 ) devoe $end
$var wire 1 * ~QUARTUS_CREATED_GND~I_combout $end
$var wire 1 + ~QUARTUS_CREATED_UNVM~~busy $end
$var wire 1 , ~QUARTUS_CREATED_ADC1~~eoc $end
$var wire 1 - ~QUARTUS_CREATED_ADC2~~eoc $end
$var wire 1 . OUT~output_o $end
$var wire 1 / IN~input_o $end
$var wire 1 0 OnOff~input_o $end
$var wire 1 1 state~0_combout $end
$var wire 1 2 state~q $end
$var wire 1 3 Mult0~0_combout $end
$upscope $end
$upscope $end
$enddefinitions $end
#0
$dumpvars
1!
0"
0#
0$
1%
x&
1'
1(
1)
0*
z+
z,
z-
0.
1/
00
11
02
03
$end
#40000
1"
10
#80000
0"
00
12
13
01
1.
1#
#120000
1"
10
#160000
0"
00
02
03
11
0.
0#
#200000
1"
10
#240000
0"
00
12
13
01
1.
1#
#280000
1"
10
#320000
0"
00
02
03
11
0.
0#
#360000
1"
10
#400000
0"
00
12
13
01
1.
1#
#440000
1"
10
#480000
0"
00
02
03
11
0.
0#
#520000
1"
10
#560000
0"
00
12
13
01
1.
1#
#600000
1"
10
#640000
0"
00
02
03
11
0.
0#
#680000
1"
10
#720000
0"
00
12
13
01
1.
1#
#760000
1"
10
#800000
0"
00
02
03
11
0.
0#
#840000
1"
10
#880000
0"
00
12
13
01
1.
1#
#920000
1"
10
#960000
0"
00
02
03
11
0.
0#
