accumulator/simulation/qsim/accumulator.msim.vcd
$comment
	File created using the following command:
		vcd file accumulator.msim.vcd -direction
$end
$date
	Sun Apr 03 12:06:01 2022
$end
$version
	ModelSim Version 2020.1
$end
$timescale
	1ps
$end

$scope module accumulator_vlg_vec_tst $end
$var reg 4 ! A [3:0] $end
$var reg 4 " B [3:0] $end
$var reg 1 # S $end
$var reg 1 $ clear $end
$var reg 1 % increment $end
$var reg 1 & load $end
$var wire 1 ' Z [3] $end
$var wire 1 ( Z [2] $end
$var wire 1 ) Z [1] $end
$var wire 1 * Z [0] $end

$scope module i1 $end
$var wire 1 + gnd $end
$var wire 1 , vcc $end
$var wire 1 - unknown $end
$var tri1 1 . devclrn $end
$var tri1 1 / devpor $end
$var tri1 1 0 devoe $end
$var wire 1 1 ~QUARTUS_CREATED_GND~I_combout $end
$var wire 1 2 ~QUARTUS_CREATED_UNVM~~busy $end
$var wire 1 3 ~QUARTUS_CREATED_ADC1~~eoc $end
$var wire 1 4 ~QUARTUS_CREATED_ADC2~~eoc $end
$var wire 1 5 Z[0]~output_o $end
$var wire 1 6 Z[1]~output_o $end
$var wire 1 7 Z[2]~output_o $end
$var wire 1 8 Z[3]~output_o $end
$var wire 1 9 increment~input_o $end
$var wire 1 : increment~inputclkctrl_outclk $end
$var wire 1 ; S~input_o $end
$var wire 1 < A[0]~input_o $end
$var wire 1 = B[0]~input_o $end
$var wire 1 > comb_4|Q[0]~0_combout $end
$var wire 1 ? comb_4|Q[0]~_wirecell_combout $end
$var wire 1 @ clear~input_o $end
$var wire 1 A clear~inputclkctrl_outclk $end
$var wire 1 B load~input_o $end
$var wire 1 C B[1]~input_o $end
$var wire 1 D A[1]~input_o $end
$var wire 1 E comb_4|Q[1]~1_combout $end
$var wire 1 F comb_4|Add0~0_combout $end
$var wire 1 G B[2]~input_o $end
$var wire 1 H A[2]~input_o $end
$var wire 1 I comb_4|Q[2]~2_combout $end
$var wire 1 J comb_4|Add0~1_combout $end
$var wire 1 K A[3]~input_o $end
$var wire 1 L B[3]~input_o $end
$var wire 1 M comb_4|Q[3]~3_combout $end
$var wire 1 N comb_4|Add0~2_combout $end
$var wire 1 O comb_4|Q [3] $end
$var wire 1 P comb_4|Q [2] $end
$var wire 1 Q comb_4|Q [1] $end
$var wire 1 R comb_4|Q [0] $end
$upscope $end
$upscope $end
$enddefinitions $end
#0
$dumpvars
b1000 !
b0 "
0#
1$
0%
0&
0*
0)
0(
0'
0+
1,
x-
1.
1/
10
01
z2
z3
z4
05
06
07
08
09
0:
0;
0<
0=
0>
1?
1@
1A
0B
0C
0D
0E
0F
0G
0H
0I
0J
1K
0L
1M
0N
0R
0Q
0P
0O
$end
#20000
1&
1B
#40000
1%
19
1:
1O
18
1N
1'
#80000
0$
0&
0%
09
0B
0@
0A
0:
0O
08
0N
0'
#120000
1%
19
1:
#160000
b0 !
b1 "
1#
1$
0%
09
1@
1;
0K
1=
1A
0:
0M
1>
#200000
1%
19
1:
1R
15
1F
0?
1*
#240000
0$
0%
09
0@
0A
0:
0R
05
0F
1?
0*
#280000
1$
1%
19
1@
1A
1:
1R
15
1F
0?
1*
#300000
1&
1B
#320000
b100 !
b0 "
0#
0%
09
0;
1H
0=
0:
1I
0>
#340000
0&
0B
#360000
1%
19
1:
1Q
0R
05
16
1?
1)
0*
#400000
0%
09
0:
#420000
1#
1;
0I
#440000
1%
19
1:
1R
15
1J
0F
0?
1*
#480000
b10 "
b0 !
0%
09
1C
0H
0:
1E
#520000
1%
19
1:
1P
0Q
0R
05
06
17
1?
1(
0)
0*
#560000
0%
09
0:
#580000
0#
0;
0E
#600000
1%
19
1:
1R
15
1F
0?
1*
#640000
b0 "
0%
09
0C
0:
#680000
0$
1%
19
0@
0A
1:
0R
0P
07
05
0J
0F
1?
0*
0(
#720000
0%
09
0:
#760000
1%
19
1:
#780000
1$
1@
1A
#800000
b100 "
1#
0%
09
1;
1G
0:
1I
#820000
1&
1B
#840000
1%
19
1:
1P
17
1J
1(
#860000
0&
0B
#880000
b0 "
0#
0%
09
0;
0G
0:
0I
#920000
1%
19
1:
1R
15
1F
0?
1*
#960000
0%
09
0:
