FAbehav/simulation/qsim/FAbehav.msim.vcd
$comment
	File created using the following command:
		vcd file FAbehav.msim.vcd -direction
$end
$date
	Sun Apr 03 12:26:06 2022
$end
$version
	ModelSim Version 2020.1
$end
$timescale
	1ps
$end

$scope module FAbehav_vlg_vec_tst $end
$var reg 1 ! ai $end
$var reg 1 " bi $end
$var reg 1 # cini $end
$var wire 1 $ couti $end
$var wire 1 % si $end

$scope module i1 $end
$var wire 1 & gnd $end
$var wire 1 ' vcc $end
$var wire 1 ( unknown $end
$var tri1 1 ) devclrn $end
$var tri1 1 * devpor $end
$var tri1 1 + devoe $end
$var wire 1 , ~QUARTUS_CREATED_GND~I_combout $end
$var wire 1 - ~QUARTUS_CREATED_UNVM~~busy $end
$var wire 1 . ~QUARTUS_CREATED_ADC1~~eoc $end
$var wire 1 / ~QUARTUS_CREATED_ADC2~~eoc $end
$var wire 1 0 si~output_o $end
$var wire 1 1 couti~output_o $end
$var wire 1 2 ai~input_o $end
$var wire 1 3 cini~input_o $end
$var wire 1 4 bi~input_o $end
$var wire 1 5 WideOr1~0_combout $end
$var wire 1 6 WideOr0~0_combout $end
$upscope $end
$upscope $end
$enddefinitions $end
#0
$dumpvars
1!
0"
0#
0$
1%
0&
1'
x(
1)
1*
1+
0,
z-
z.
z/
10
01
12
03
04
15
06
$end
#80000
1"
14
16
05
00
11
1$
0%
#140000
0!
1#
13
02
#160000
0"
04
06
15
10
01
0$
1%
#240000
1"
14
16
05
00
11
1$
0%
#320000
0"
04
06
15
10
01
0$
1%
#400000
1"
14
16
05
00
11
1$
0%
#420000
0#
03
06
15
10
01
0$
1%
#480000
0"
04
05
00
0%
#560000
1"
14
15
10
1%
#640000
0"
04
05
00
0%
#720000
1"
14
15
10
1%
#800000
0"
04
05
00
0%
#880000
1"
14
15
10
1%
#960000
0"
04
05
00
0%
